{
  "project_info": {
    "project_number": "361317973855",
    "firebase_url": "https://sempro2020-644dd.firebaseio.com",
    "project_id": "sempro2020-644dd",
    "storage_bucket": "sempro2020-644dd.appspot.com"
  },
  "client": [
    {
      "client_info": {
        "mobilesdk_app_id": "1:361317973855:android:3d1d2349a83a5935d080ea",
        "android_client_info": {
          "package_name": "at.fhooe.mc.sempro2020"
        }
      },
      "oauth_client": [
        {
          "client_id": "361317973855-mnv5j95i34de4vs628o3l5fg903k2k1t.apps.googleusercontent.com",
          "client_type": 1,
          "android_info": {
            "package_name": "at.fhooe.mc.sempro2020",
            "certificate_hash": "0b91b7c8aad70df198e444114903a909e65d67fc"
          }
        },
        {
          "client_id": "361317973855-3afuc8dqjg7p5bb131b0l812gj5ot5l8.apps.googleusercontent.com",
          "client_type": 3
        }
      ],
      "api_key": [
        {
          "current_key": "AIzaSyDpGULoEdhq18r0_ZvIJG27nfd70_j3vR4"
        }
      ],
      "services": {
        "appinvite_service": {
          "other_platform_oauth_client": [
            {
              "client_id": "361317973855-3afuc8dqjg7p5bb131b0l812gj5ot5l8.apps.googleusercontent.com",
              "client_type": 3
            }
          ]
        }
      }
    }
  ],
  "configuration_version": "1"
}