<?xml version="1.0" encoding="utf-8"?>
<!-- Generator: Adobe Illustrator 16.0.0, SVG Export Plug-In . SVG Version: 6.00 Build 0)  -->
<!DOCTYPE svg PUBLIC "-//W3C//DTD SVG 1.1//EN" "http://www.w3.org/Graphics/SVG/1.1/DTD/svg11.dtd">
<svg version="1.1" id="Layer_1" xmlns="http://www.w3.org/2000/svg" xmlns:xlink="http://www.w3.org/1999/xlink" x="0px" y="0px"
	 width="1024px" height="1024px" viewBox="0 0 1024 1024" enable-background="new 0 0 1024 1024" xml:space="preserve">
<path fill="#A40018" d="M1024,774c0,138.071-111.93,250-250,250H250C111.928,1024,0,912.071,0,774V250C0,111.929,111.928,0,250,0
	h524c138.07,0,250,111.929,250,250V774z"/>
<g display="none">
	<g display="inline">
		<path fill="#1F1E1C" d="M134.514,843.099h-0.303l-13.318,75.365h-14.68l23.306-118.95l39.196,89.894l39.196-89.894l23.306,118.95
			h-14.68l-13.318-75.365h-0.303l-34.202,77.787L134.514,843.099z"/>
		<path fill="#1F1E1C" d="M255.884,804.356h61.291v13.015H270.11v31.932h45.704v13.016H270.11v43.131h47.065v13.015h-61.291V804.356
			z"/>
		<path fill="#1F1E1C" d="M397.383,825.997c-4.238-7.112-9.686-10.745-18.312-10.745c-9.08,0-19.068,6.205-19.068,16.193
			c0,8.929,8.777,13.62,15.89,16.345l8.172,3.178c16.193,6.356,28.3,15.285,28.3,34.354c0,20.733-16.042,35.564-36.472,35.564
			c-18.463,0-32.84-13.621-35.261-31.933l14.377-3.026c-0.151,12.561,9.837,21.641,22.095,21.641s21.036-10.291,21.036-22.246
			c0-12.259-9.837-17.556-19.674-21.642l-7.869-3.329c-13.015-5.6-24.819-13.015-24.819-28.905
			c0-18.463,16.344-29.511,33.597-29.511c12.712,0,23.154,6.205,29.359,17.252L397.383,825.997z"/>
		<path fill="#1F1E1C" d="M490.603,825.997c-4.238-7.112-9.686-10.745-18.312-10.745c-9.08,0-19.068,6.205-19.068,16.193
			c0,8.929,8.777,13.62,15.89,16.345l8.172,3.178c16.193,6.356,28.3,15.285,28.3,34.354c0,20.733-16.042,35.564-36.472,35.564
			c-18.463,0-32.84-13.621-35.261-31.933l14.377-3.026c-0.151,12.561,9.837,21.641,22.095,21.641s21.036-10.291,21.036-22.246
			c0-12.259-9.837-17.556-19.674-21.642l-7.869-3.329c-13.015-5.6-24.819-13.015-24.819-28.905
			c0-18.463,16.344-29.511,33.597-29.511c12.712,0,23.154,6.205,29.359,17.252L490.603,825.997z"/>
		<path fill="#1F1E1C" d="M533.125,804.356h61.292v13.015h-47.065v31.932h45.703v13.016h-45.703v43.131h47.065v13.015h-61.292
			V804.356z"/>
		<path fill="#1F1E1C" d="M695.809,889.861l-13.016,28.603h-15.285l54.482-118.95l54.48,118.95h-15.285l-13.014-28.603H695.809z
			 M721.99,830.688l-20.279,46.158h40.559L721.99,830.688z"/>
		<path fill="#1F1E1C" d="M812.184,918.464h-14.227V804.356h16.344c35.111,0,46.008,12.106,46.008,32.991
			c0,24.063-18.313,33.294-39.953,33.294h-8.172V918.464z M812.184,857.929h4.539c14.529,0,30.268-2.724,30.268-20.884
			c0-17.858-16.949-19.977-31.023-19.977h-3.783V857.929z"/>
		<path fill="#1F1E1C" d="M899.049,918.464h-14.225V804.356h16.344c35.109,0,46.006,12.106,46.006,32.991
			c0,24.063-18.311,33.294-39.953,33.294h-8.172V918.464z M899.049,857.929h4.541c14.527,0,30.268-2.724,30.268-20.884
			c0-17.858-16.951-19.977-31.025-19.977h-3.783V857.929z"/>
	</g>
</g>
<path id="rect3438_1_" display="none" fill="#1F1E1C" stroke="#1F1E1C" stroke-width="5.6575" stroke-linejoin="round" stroke-opacity="0.9569" d="
	M205.401,173.219h650.194c63.091,0,114.236,51.145,114.236,114.234v303.069c0,63.092-51.146,114.234-114.236,114.234H205.401
	c-63.09,0-114.235-51.144-114.235-114.234V287.453C91.167,224.363,142.311,173.219,205.401,173.219z"/>
<path id="rect3438_3_" fill="#1F1E1C" d="M943.28,494.683v70.717c0,62.015-50.272,112.285-112.286,112.285H191.898
	c-5.538,0-10.981-0.401-16.304-1.177"/>
<path id="rect3438" fill="#FFFFFF" stroke="#1F1E1C" stroke-width="5.6575" stroke-linejoin="round" stroke-opacity="0.9569" d="
	M192.451,155.219h639.096c62.014,0,112.286,50.271,112.286,112.284v297.896c0,62.015-50.272,112.284-112.286,112.284H192.451
	c-62.013,0-112.285-50.271-112.285-112.284V267.503C80.167,205.49,130.438,155.219,192.451,155.219z"/>
<path id="rect3440" fill="#A40018" d="M264.738,267.733c-59.157,0-107.291,48.1-107.291,107.258v129.975h31.335v-80.558H492.18
	v-31.335H188.783V374.99c0-42.341,33.616-75.924,75.955-75.924H492.18v-31.334L264.738,267.733L264.738,267.733z M533.339,197.293
	v307.673h31.336V377.929c0-43.966,35.712-78.862,79.677-78.862h115.19c43.965,0,78.894,34.896,78.894,78.862v127.037h31.336V377.929
	c0-60.783-49.446-110.196-110.229-110.196h-115.19c-31.309,0-59.593,13.122-79.677,34.143V197.293H533.339z"/>
<path id="text3482" fill="#201F1D" stroke="#201F1D" stroke-width="0.9429" d="M213.35,597.977c0,8.876-2.433,15.966-7.297,21.267
	c-4.865,5.301-11.33,7.951-19.394,7.951c-6.696,0-12.33-1.877-16.902-5.631c-4.571-3.755-7.543-8.878-8.916-15.369
	c-0.515-2.436-0.783-5.022-0.805-7.763c0.004-8.622,2.455-15.57,7.35-20.846c4.896-5.274,11.351-7.912,19.364-7.912
	c7.254,0,13.151,2.105,17.692,6.315c4.101,3.803,6.821,8.875,8.162,15.214C213.086,593.487,213.334,595.744,213.35,597.977
	L213.35,597.977z M205.702,598.509c0.025-2.284-0.176-4.438-0.604-6.467c-1.04-4.921-3.189-8.789-6.448-11.604
	c-3.259-2.815-7.245-4.223-11.961-4.223c-5.732,0-10.337,2.029-13.816,6.086c-3.479,4.06-5.222,9.436-5.228,16.129
	c-0.025,2.282,0.177,4.439,0.605,6.47c1.029,4.867,3.172,8.71,6.431,11.524c3.258,2.816,7.247,4.225,11.964,4.225
	c5.73,0,10.335-2.028,13.815-6.086C203.94,610.505,205.688,605.154,205.702,598.509L205.702,598.509z M261.374,584.965
	c-0.014,4.972-2.461,8.752-7.341,11.338c3.108,1.269,5.345,2.611,6.71,4.032c1.365,1.42,2.289,3.271,2.771,5.555
	c0.246,1.165,0.376,2.383,0.39,3.649c-0.036,4.87-1.743,8.789-5.123,11.756c-3.379,2.968-7.859,4.451-13.439,4.451h-23.509
	l0.095-54.627h24.042c4.007,0,7.354,0.952,10.038,2.854c2.685,1.9,4.375,4.5,5.072,7.798
	C261.294,582.784,261.392,583.85,261.374,584.965L261.374,584.965z M253.955,585.499c-0.009-0.762-0.083-1.472-0.223-2.132
	c-0.836-3.956-4.525-5.936-11.069-5.936h-13.39l-0.021,16.814h13.313C250.174,594.247,253.971,591.331,253.955,585.499
	L253.955,585.499z M256.568,609.389c-0.007-0.761-0.081-1.472-0.221-2.132c-0.986-4.665-5.182-6.998-12.586-6.998h-14.533
	l0.019,19.173h15.75c3.703,0,6.561-0.876,8.575-2.626C255.586,615.056,256.584,612.584,256.568,609.389L256.568,609.389z
	 M313.304,571.119l-0.062,6.544H280.83l0.038,16.738h29.9l-0.063,6.542h-29.899l-0.022,18.26h32.945l0.013,6.543h-40.324
	l0.097-54.627H313.304z M367.493,585.955c0.012,3.651-0.923,6.671-2.804,9.054c-0.959,1.217-2.563,2.51-4.809,3.881
	c3.403,1.471,5.421,3.701,6.053,6.693c0.205,0.964,0.355,2.157,0.452,3.578l0.494,9.89c0.032,1.115,0.108,1.952,0.228,2.513
	c0.246,1.164,1.063,2.153,2.453,2.967l0.028,1.217h-9.053c-0.245-0.914-0.433-1.801-0.563-2.663
	c-0.417-2.941-0.648-6.314-0.69-10.118c-0.013-1.979-0.131-3.5-0.356-4.564c-0.278-1.319-0.887-2.512-1.822-3.575
	c-1.471-1.675-4.007-2.515-7.608-2.515h-17.877l0.006,23.437h-7.378l0.093-54.627h25.259c10.146,0,15.99,3.651,17.534,10.955
	C367.388,583.292,367.509,584.585,367.493,585.955L367.493,585.955z M359.92,586.488c-0.009-1.018-0.101-1.931-0.271-2.74
	c-0.891-4.211-4.073-6.315-9.552-6.315h-18.413l-0.031,18.565h17.119C356.175,595.998,359.892,592.828,359.92,586.488
	L359.92,586.488z M428.818,597.977c-0.016-2.231-0.265-4.488-0.746-6.772c-1.34-6.339-4.061-11.411-8.161-15.214
	c-4.542-4.21-10.439-6.315-17.692-6.315c-8.014,0-14.468,2.639-19.363,7.912c-4.896,5.274-7.346,12.224-7.351,20.846
	c0.021,2.739,0.29,5.327,0.805,7.763c1.372,6.491,4.344,11.614,8.916,15.369c4.572,3.754,10.206,5.631,16.902,5.631
	c8.064,0,14.529-2.65,19.394-7.951C426.386,613.941,428.818,606.853,428.818,597.977L428.818,597.977z M421.171,598.509
	c-0.015,6.646-1.762,11.997-5.242,16.055c-3.479,4.059-8.084,6.087-13.813,6.087c-4.719,0-8.706-1.407-11.964-4.225
	c-3.259-2.814-5.402-6.657-6.432-11.524c-0.428-2.029-0.631-4.188-0.604-6.47c0.005-6.693,1.748-12.069,5.227-16.129
	c3.479-4.057,8.084-6.086,13.815-6.086c4.716,0,8.704,1.407,11.962,4.222c3.258,2.815,5.407,6.684,6.448,11.604
	C420.995,594.07,421.196,596.225,421.171,598.509L421.171,598.509z M410.766,557.195h-6.923l-0.035,7.76h6.926L410.766,557.195z
	 M398.441,557.195h-6.924l-0.033,7.76h6.924L398.441,557.195z M477.371,587.097h-6.924c-0.051-0.71-0.14-1.37-0.268-1.979
	c-1.286-6.087-5.783-9.129-13.492-9.129c-3.855,0-6.862,0.836-9.02,2.51c-2.157,1.673-3.228,3.979-3.215,6.923
	c-0.012,0.66,0.04,1.269,0.158,1.825c0.568,2.688,2.662,4.438,6.282,5.25l15.594,3.575c6.823,1.572,10.836,5.2,12.036,10.881
	c0.248,1.167,0.362,2.436,0.348,3.806c-0.021,5.173-1.946,9.205-5.773,12.098c-3.827,2.891-9.189,4.338-16.087,4.338
	c-7.559,0-13.242-2.057-17.052-6.165c-1.109-1.165-2.018-2.459-2.724-3.88c-1.13-2.232-1.741-5.25-1.837-9.054h6.924
	c0.072,1.065,0.207,2.055,0.399,2.968c1.383,6.544,6.411,9.814,15.083,9.814c9.283,0,13.928-3.222,13.935-9.664
	c0.018-2.079-0.569-3.778-1.76-5.097c-1.389-1.521-4.696-2.894-9.924-4.109l-11.123-2.587c-6.509-1.521-10.294-4.793-11.354-9.813
	c-0.215-1.016-0.318-2.104-0.313-3.271c-0.027-5.173,1.725-9.243,5.257-12.211c3.531-2.967,8.34-4.45,14.428-4.45
	c3.904,0,7.386,0.634,10.442,1.9c3.781,1.573,6.472,3.981,8.071,7.229C476.441,580.781,477.077,583.546,477.371,587.097
	L477.371,587.097z M527.861,571.119l-0.063,6.544H509.31l-0.031,48.083h-7.382l0.032-48.083h-18.485l0.062-6.544H527.861z
	 M575.285,571.119l-0.062,6.544H542.81l0.038,16.738h29.9l-0.063,6.542h-29.898l-0.023,18.26h32.944l0.013,6.543h-40.322
	l0.098-54.627H575.285z M629.474,585.955c0.014,3.651-0.922,6.671-2.805,9.054c-0.96,1.217-2.562,2.51-4.807,3.881
	c3.402,1.471,5.419,3.701,6.054,6.693c0.203,0.964,0.354,2.157,0.451,3.578l0.491,9.89c0.034,1.115,0.109,1.952,0.228,2.513
	c0.247,1.164,1.064,2.153,2.456,2.967l0.025,1.217h-9.053c-0.244-0.914-0.433-1.801-0.563-2.663
	c-0.42-2.941-0.651-6.314-0.692-10.118c-0.014-1.979-0.132-3.5-0.356-4.564c-0.279-1.319-0.886-2.512-1.821-3.575
	c-1.47-1.675-4.005-2.515-7.607-2.515h-17.88l0.01,23.437h-7.381l0.097-54.627h25.259c10.146,0,15.989,3.651,17.531,10.955
	C629.367,583.292,629.488,584.585,629.474,585.955L629.474,585.955z M621.9,586.488c-0.012-1.018-0.103-1.931-0.272-2.74
	c-0.889-4.211-4.073-6.315-9.552-6.315h-18.412l-0.032,18.565h17.118C618.156,595.998,621.873,592.828,621.9,586.488L621.9,586.488z
	 M684.456,585.955c0.011,3.651-0.924,6.671-2.805,9.054c-0.96,1.217-2.563,2.51-4.811,3.881c3.403,1.471,5.422,3.701,6.054,6.693
	c0.206,0.964,0.354,2.157,0.452,3.578l0.493,9.89c0.033,1.115,0.108,1.952,0.229,2.513c0.247,1.164,1.063,2.153,2.453,2.967
	l0.027,1.217h-9.052c-0.245-0.914-0.434-1.801-0.565-2.663c-0.417-2.941-0.647-6.314-0.688-10.118
	c-0.014-1.979-0.133-3.5-0.357-4.564c-0.278-1.319-0.887-2.512-1.82-3.575c-1.473-1.675-4.008-2.515-7.607-2.515h-17.88
	l0.007,23.437h-7.378l0.093-54.627h25.263c10.146,0,15.988,3.651,17.53,10.955C684.35,583.292,684.471,584.585,684.456,585.955
	L684.456,585.955z M676.883,586.488c-0.011-1.018-0.102-1.931-0.271-2.74c-0.893-4.211-4.073-6.315-9.553-6.315h-18.411
	l-0.032,18.565h17.118C673.138,595.998,676.855,592.828,676.883,586.488L676.883,586.488z M735.92,571.119l-0.061,6.544h-32.412
	l0.037,16.738h29.901l-0.064,6.542h-29.897l-0.023,18.26h32.946l0.014,6.543h-40.324l0.095-54.627H735.92z M750.598,571.119v54.627
	h-7.378v-54.627H750.598z M810.58,587.551h-7.15c-0.949-3.295-2.166-5.679-3.644-7.149c-2.771-2.789-6.616-4.185-11.534-4.185
	c-5.632,0-10.043,1.99-13.234,5.972c-3.188,3.982-4.785,9.447-4.787,16.396c-0.021,2.789,0.212,5.326,0.693,7.608
	c2.038,9.638,7.672,14.456,16.904,14.456c5.271,0,9.394-1.979,12.361-5.936c1.47-1.929,2.709-4.947,3.718-9.055h7.152
	c-0.137,0.559-0.301,1.345-0.491,2.357c-1.41,5.326-3.222,9.231-5.438,11.717c-4.479,4.973-10.472,7.459-17.977,7.459
	c-6.188,0-11.356-1.776-15.508-5.327c-4.146-3.551-6.886-8.473-8.217-14.761c-0.565-2.688-0.844-5.555-0.826-8.598
	c0.012-8.826,2.321-15.839,6.929-21.037c4.604-5.199,10.842-7.798,18.704-7.798c6.188,0,11.22,1.547,15.095,4.641
	C807.206,577.407,809.623,581.821,810.58,587.551L810.58,587.551z M865.493,571.119l-0.099,54.627h-7.378l0.015-25.487H829.5
	l-0.015,25.487h-7.38l0.095-54.627h7.38l-0.093,22.598h28.529l0.095-22.598H865.493z"/>
<path id="path3487" fill="#201F1D" stroke="#201F1D" stroke-width="3.9099" d="M870.266,544.03l-711.838-0.585"/>
<g enable-background="new    ">
	<path fill="#FFFFFF" d="M127.514,834.099h-0.303l-13.318,75.365h-14.68l23.306-118.95l39.196,89.894l39.196-89.894l23.306,118.95
		h-14.68l-13.318-75.365h-0.303l-34.202,77.787L127.514,834.099z"/>
	<path fill="#FFFFFF" d="M248.884,795.356h61.291v13.015H263.11v31.932h45.704v13.016H263.11v43.131h47.065v13.015h-61.291V795.356z
		"/>
	<path fill="#FFFFFF" d="M390.383,816.997c-4.238-7.112-9.686-10.745-18.312-10.745c-9.08,0-19.068,6.205-19.068,16.193
		c0,8.929,8.777,13.62,15.89,16.345l8.172,3.178c16.193,6.356,28.3,15.285,28.3,34.354c0,20.733-16.042,35.564-36.472,35.564
		c-18.463,0-32.84-13.621-35.261-31.933l14.377-3.026c-0.151,12.561,9.837,21.641,22.095,21.641s21.036-10.291,21.036-22.246
		c0-12.259-9.837-17.556-19.674-21.642l-7.869-3.329c-13.015-5.6-24.819-13.015-24.819-28.905c0-18.463,16.344-29.511,33.597-29.511
		c12.712,0,23.154,6.205,29.359,17.252L390.383,816.997z"/>
	<path fill="#FFFFFF" d="M483.603,816.997c-4.238-7.112-9.686-10.745-18.312-10.745c-9.08,0-19.068,6.205-19.068,16.193
		c0,8.929,8.777,13.62,15.89,16.345l8.172,3.178c16.193,6.356,28.3,15.285,28.3,34.354c0,20.733-16.042,35.564-36.472,35.564
		c-18.463,0-32.84-13.621-35.261-31.933l14.377-3.026c-0.151,12.561,9.837,21.641,22.095,21.641s21.036-10.291,21.036-22.246
		c0-12.259-9.837-17.556-19.674-21.642l-7.869-3.329c-13.015-5.6-24.819-13.015-24.819-28.905c0-18.463,16.344-29.511,33.597-29.511
		c12.712,0,23.154,6.205,29.359,17.252L483.603,816.997z"/>
	<path fill="#FFFFFF" d="M526.125,795.356h61.292v13.015h-47.065v31.932h45.703v13.016h-45.703v43.131h47.065v13.015h-61.292
		V795.356z"/>
	<path fill="#FFFFFF" d="M688.809,880.861l-13.016,28.603h-15.285l54.482-118.95l54.48,118.95h-15.285l-13.014-28.603H688.809z
		 M714.99,821.688l-20.279,46.158h40.559L714.99,821.688z"/>
	<path fill="#FFFFFF" d="M805.184,909.464h-14.227V795.356h16.344c35.111,0,46.008,12.106,46.008,32.991
		c0,24.063-18.313,33.294-39.953,33.294h-8.172V909.464z M805.184,848.929h4.539c14.529,0,30.268-2.724,30.268-20.884
		c0-17.858-16.949-19.977-31.023-19.977h-3.783V848.929z"/>
	<path fill="#FFFFFF" d="M892.049,909.464h-14.225V795.356h16.344c35.109,0,46.006,12.106,46.006,32.991
		c0,24.063-18.311,33.294-39.953,33.294h-8.172V909.464z M892.049,848.929h4.541c14.527,0,30.268-2.724,30.268-20.884
		c0-17.858-16.951-19.977-31.025-19.977h-3.783V848.929z"/>
</g>
</svg>
