<?xml version="1.0" encoding="utf-8"?>
<!-- Generator: Adobe Illustrator 16.0.0, SVG Export Plug-In . SVG Version: 6.00 Build 0)  -->
<!DOCTYPE svg PUBLIC "-//W3C//DTD SVG 1.1//EN" "http://www.w3.org/Graphics/SVG/1.1/DTD/svg11.dtd">
<svg version="1.1" xmlns="http://www.w3.org/2000/svg" xmlns:xlink="http://www.w3.org/1999/xlink" x="0px" y="0px" width="32px"
	 height="32px" viewBox="0 0 32 32" enable-background="new 0 0 32 32" xml:space="preserve">
<g id="Layer_1">
</g>
<g id="Layer_2">
</g>
<g id="Layer_3">
</g>
<g id="Layer_4">
</g>
<g id="Layer_5">
	<g>
		<path fill="#88BA40" d="M16,29.512c7.21,0,13.055-5.845,13.055-13.055S23.21,3.403,16,3.403S2.945,9.247,2.945,16.457
			S8.79,29.512,16,29.512"/>
		<path fill="#FFFFFF" d="M13.571,23.04c-0.352,0-0.688-0.139-0.936-0.388l-4.747-4.747c-0.517-0.517-0.517-1.353,0-1.87
			c0.516-0.516,1.353-0.516,1.869,0l3.813,3.814l8.671-8.672c0.517-0.517,1.354-0.517,1.869,0c0.517,0.516,0.517,1.353,0,1.869
			l-9.606,9.606C14.258,22.901,13.921,23.04,13.571,23.04z"/>
	</g>
</g>
</svg>
